id;title;author;isbn
0;Vita della signora Curie;"Eva Curie, C. Giardini, ";978-88-17-14666-1
1;Viaggi ai confini della vita. Esperienze di pre-morte ed extra-corporee in Oriente e Occidente: un'indagine scientifica;"Ornella Corazza, V. B. Sala, ";978-88-07-09052-3
2;Unflattening. Il pensiero visuale e la scoperta della mente grafica;"Nick Sousanis, ";978-88-549-2001-9
3;Una ragazza nichilista;"Sof'ja Kovalevskaja, ";978-88-86969-85-7
4;Una donna nuova. Il femminismo scientifico di Maria Montessori;"Valeria P. Babini, Luisa Lama, ";978-88-464-2241-5
5;Un mondo senza donne e la scienza occidentale;"David F. Noble, G. Ferrara degli Uberti, ";978-88-339-0865-6
6;Un laboratorio tutto per sé. La scienza al femminile;"L. Rampazzi, ";978-88-575-6065-6
7;Ultima lezione a Gottinga;"Davide Osenda, ";978-88-95208-92-3
8;Troppo belle per il Nobel. Grandi scienziate con un solo difetto: essere donne;"Nicolas Witkowski, A. Serra, C. Tartarini, ";978-88-339-3246-0
9;Trinity: A Graphic History of the First Atomic Bomb;"Jonathan Fetter-vorm, ";978-0-8090-9355-7
10;Totally Random: Why Nobody Understands Quantum Mechanics;"Tanya Bub, Jeffrey Bub, ";978-0-691-17695-6
11;The imitation game. L'enigma di Alan Turing;"Jim Ottaviani, Leland Purvis, ";978-88-580-1639-8
12;Testosterone Rex. Miti di sesso, scienza e società;"Cordelia Fine, G. Bernardi, ";978-88-9395-026-8
13;T-Minus: The Race to the Moon;"Jim Ottaviani, Zander Cannon, Kevin Cannon, ";978-1-4169-4960-2
14;Suspended in Language: Niels Bohr's life, discoveries, and the century he shaped;"Jim Ottaviani, Leland Purvis, Jay Hosler, Steve Leialoha, Linda Medley, Jeff Parker, ";978-0-9788037-2-8
15;Sulle tracce del DNA;"Claudia Flandoli, ";978-88-9393-005-5
16;Storia umana della matematica;"Chiara Valerio, ";978-88-06-23006-7
17;Storia naturale del concepimento: Come la scienza può cambiare le regole del sesso;"Aarathi Prasad, ";
18;Storia e teorie della salute e della malattia;"Gilberto Corbellini, ";978-88-430-7415-0
19;Sospettosi. Noi e i nostri dubbi sulla scienza;"Silvia Bencivelli, ";978-88-06-24138-4
20;Siamo fatti di stelle. Dialogo sui minimi sistemi;"Margherita Hack, Marco Morelli, ";
21;Sei donne che hanno cambiato il mondo: Le grandi scienziate della fisica del XX secolo;"Gabriella Greison, ";
22;Scienziate nel tempo: più di 100 biografie;"Sara Sesti, Liliana Moro, ";
23;Rita Levi-Montalcini: Una donna libera;"Carola Vai, ";
24;Rita Levi Montalcini: L'irresistibile fascino del cervello;"Enrica Battifoglia, ";
25;Racconti di scienza. Bugie, bufale e truffe;"Darryl Cunningham, D. Sanchioni, ";978-88-98602-10-0
26;Progresso;"Aldo Schiavone, ";978-88-15-28641-3
27;Primati. Le amicizie avventurose di Jane Goodall, Dian Fossey e Biruté Galdikas;"Jim Ottaviani, Maris Wicks, G. Pecoraro, ";978-88-8033-967-0
28;Performatività della natura. Quanto e queer;"Karen Barad, E. Bougleux, R. Castiello, ";978-88-467-5045-7
29;Non è mica la fine del mondo;"Tuono Pettinato, Francesca Riccioni, ";978-88-17-09762-8
30;NGF. La molecola della vita;" Levi Montalcini, Rita, ";978-88-12-00739-4
31;Neurocomic;"Matteo Farinella, Hana Ros, ";978-88-17-07579-4
32;Mysteries of the Quantum Universe;"Thibault Damour, Mathieu Burniat, Sarah-Louise Raillard, ";978-0-14-198517-6
33;Mom's Cancer;"Brian Fies, ";978-0-8109-5840-1
34;Mileva Einstein: teoria sul dolore;"Slavenka Drakulic, Estera Miocic, ";
35;Mercury 13. La vera storia di tredici donne e del sogno di volare nello spazio;"Martha Ackmann, C. Ingiardi, ";978-88-470-1991-1
36;Mars horizon;"Porcel Florence, Erwann Surcouf, M. Foschini, ";978-88-6543-996-8
37;Marie Curie. La signora dei mondi invisibili;"Marco Ciardi, M. Temporelli, ";978-88-203-8071-7
38;Marie Curie;"Alice Milani, ";978-88-99016-82-1
39;Maria Gaetana Agnesi e il suo mondo. Una vita tra scienza e carità;"Massimo Mazzotti, ";978-88-430-9877-4
40;Logicomix;"Apostolos Doxiadis, Christos H. Papadimitriou, A. Papadatos, A. Di Donna, P. Eusebio, ";978-88-235-2476-7
41;Lise Meitner;"Pietro Greco, ";978-88-6443-270-0
42;Le stelle dimenticate. Storia delle scienziate che misurarono il cielo;"Dava Sobel, R. Zuppet, ";978-88-17-09372-9
43;Laura Bassi: Donne, genere e scienza nell’Italia del Settecento;"Marta Cavazza, ";
44;Lab girl. La mia vita tra i segreti delle piante;"Hope Jahren, D. Cavallini, ";978-88-7578-742-4
45;La stella più lontana. Riflessioni su vita, etica e scienza;"Margherita Hack, ";978-88-98716-81-4
46;La signora delle comete. Intrighi e misteri della missione spaziale Rosetta;"Amalia Ercoli Finzi, Tommaso Tirelli, ";978-88-220-5704-4
47;La scomparsa di Majorana;"Leonardo Sciascia, ";978-88-459-1269-6
48;La scienza delle donne: Ricerca, teoremi e algoritmi al femminile;"Maria Rosa Panté, ";
49;La rivincita delle nerd. Storie di donne, computer e sfida agli stereotipi;"Mariacristina Sciannanblo, ";978-88-575-4410-6
50;La gentil scienza;"R. Fiore, R. Mazzanti, I. Degl'Innocenti, ";978-88-467-3670-3
51;La fabbrica dei corpi. Dalle prime protesi all'umanità aumentata;"Héloise Chochois, M. Foschini, ";978-88-6543-995-1
52;La diva geniale;"Marie Benedict, A. Martini, ";978-88-566-7221-3
53;L'universo nel Terzo millennio. Le meraviglie che conosciamo e i misteri ancora insoluti del cosmo;"Margherita Hack, ";978-88-17-09277-7
54;L'informatica al femminile. Storie sconosciute di donne che hanno cambiato il mondo;"Cinzia Ballesio, Giovanna Giordano, ";978-88-6608-312-2
55;L'incredibile cena dei fisici quantistici;"Gabriella Greison, ";978-88-6918-899-2
56;L'incantatrice dei numeri;"Jennifer Chiaverini, Maddalena Togliani, ";
57;L'epopea delle lunatiche. Storie di astronome ribelli;"Valeria Palumbo, M. Temporelli, ";978-88-203-8554-5
58;L'enigma dei numeri primi. L'ipotesi di Riemann, il più grande mistero della matematica;"Marcus Du Sautoy, C. Capararo, ";978-88-17-00843-3
59;Ipazia. Vita e sogni di una scienziata del IV secolo;"Adriano Petta, Antonino Colavito, ";978-88-96052-13-6
60;Ipazia d'Alessandria;"Gemma Beretta, ";978-88-6473-089-9
61;In utero. La scienza e i nuovi modi di diventare madre;"Marta Baiocchi, ";978-88-454-0006-3
62;In sintonia con l'organismo: La vita e l’opera di Barbara McClintock;"Evelyn Fox Keller, Milvia Luisa Racchi, Luciana Percovich, Maria Grazia Marzot, ";
63;In piena libertà e consapevolezza. Vivere e morire da laici;"Margherita Hack, Nicla Panciera, ";978-88-9388-014-5
64;Il tempo e l'acqua;"Andri Snær Magnason, S. Cosimini, ";978-88-7091-627-0
65;Il segreto di Majorana;"Silvia Rocchi, Francesca Riccioni, ";978-88-17-08147-4
66;Il passaggio di Venere. La nascita della comunità scientifica internazionale attraverso una straordinaria avventura astronomica;"Andrea Wulf, M. Bottini, ";978-88-6220-349-4
67;Il giovane Darwin;"Fabien Grolleau, Jérémie Royer, ";978-88-6790-398-6
68;Il dopo. Il virus che ci ha costretto a cambiare mappa mentale;"Ilaria Capua, ";978-88-04-73131-3
69;Il computer dimenticato. Charles Babbage, Ada Lovelace e la ricerca della macchina perfetta;"Silvio Henin, M. Temporelli, ";978-88-203-7044-2
70;Il computer è donna. Eroine geniali e visionarie che hanno fatto la storia dell'informatica;"Carla Petrocelli, ";978-88-220-6885-9
71;Il genio delle donne;"Piergiorgio Odifreddi, ";
72;I misteri dell'ipercubo. Un'avventura matematica a più dimensioni;"Tommaso Castellani, ";978-88-220-4182-1
73;Hotel Copenaghen;"Gabriella Greison, ";978-88-9381-246-7
74;Hawking;"Jim Ottaviani, Aaron Polk, Leland Myrick, ";978-1-62672-025-1
75;Graphic Medicine Manifesto;"M. K. Czerwiec, Ian Williams, Susan Merrill Squier, Michael J. Green, Kimberly R. Myers, Scott T. Smith, ";
76;Gorilla nella nebbia;"Dian Fossey, C. Campominosi, M. Acs, ";978-88-99176-38-9
77;Galileo Galilei;"Paolo D'Antonio, ";978-88-98439-40-9
78;Feynman;"Jim Ottaviani, Leland Myrick, Hilary Sycamore, ";978-1-59643-827-9
79;Etiche dell'ambiente. Voci e prospettive;"M. Andreozzi, ";978-88-7916-612-6
80;Enigma. La strana vita di Alan Turing;"Tuono Pettinato, Francesca Riccioni, ";978-88-17-06067-7
81;Einstein Forever;"Gabriella Greison, ";
82;Einstein e io;"Gabriella Greison, ";978-88-9381-620-5
83;Cosa accadrebbe se? Risposte scientifiche a domande ipotetiche assurde;"Randall Munroe, S. Serù, ";978-88-301-0011-4
84;Conversazioni con Evelyn Fox Keller una scienziata anomala;"Elisabetta Donini, L. Corbetta, ";978-88-85861-19-0
85;Comunicare la scienza;"Silvia Bencivelli, Francesco P. De Ceglia, ";978-88-430-6955-2
86;Chthulucene: Sopravvivere su un pianeta infetto;"Donna Haraway, Claudia Durastanti, Clara Ciccioni, ";
87;Bombshell. La storia di Hedy Lamarr. DVD. Con Libro;"Alexandra Dean, ";978-88-07-74151-7
88;Bestiario Haraway. Per un femminismo multispecie;"Federica Timeto, ";978-88-575-6586-6
89;Autobiografia;"Marie Curie, M. De Pasquale, ";978-88-328-2022-5
90;Armi, acciaio e malattie. Breve storia del mondo negli ultimi tredicimila anni;"Jared Diamond, L. Civalleri, ";978-88-06-14809-6
91;Dipartimento di teorie folgoranti;"Tom Gauld, F. Crescentini, ";978-88-04-72529-9
92;Anthropic Bias: Observation Selection Effects in Science and Philosophy;"Nick Bostrom, ";
93;Anna Kuliscioff: donna, rivoluzionaria, medico. Storia della dottora dei poveri nella medicina del suo tempo;"Francesca Zazzara, ";978-88-338-3031-5
94;Abbi il coraggio di conoscere;" Levi-Montalcini,Rita, ";978-88-17-07048-5
95;A New History of Life: The Radical New Discoveries about the Origins and Evolution of Life on Earth;"Peter Ward, Joe Kirschvink, ";978-1-60819-910-5
96;Global Catastrophic Risks;"Nick Bostrom, Milan M. Cirkovic, Martin J. Rees, ";
97;Silent Spring;"Rachel Carson,  Shackleton, ";
98;Inferiori. Come la scienza ha penalizzato le donne. La nuova ricerca che sta riscrivendo la storia;"Angela Saini, R. Voi, ";978-88-6905-566-9
99;Dialoghi. Conversazioni sulla natura dell'universo;"Clifford V. Johnson, A. Migliori, ";978-88-220-5705-1
100;La visione di Mallet - Lavieri edizioni;"Gianfranco Giardina,  Giulio Giordano,  Giuseppe Palumbo, ";978-88-549-2003-3
101;Dalla parte dei grassi. Lipidomica in cucina- perché i grassi non sono tutti uguali e dobbiamo conoscerli;"Carla Ferreri, Roberta Scanferlato, ";978-88-6939-281-8
102;Ucciderò il gatto di Schrödinger;"Gabriella Greison, ";978-88-04-72866-5
103;Medici senza camice. Pazienti senza pigiama. Socioanalisi narrativa dell'istituzione medica;"Giuseppe Abbracciavento, ";978-88-89883-79-2
104;Primo, non curare chi è normale: contro l'invenzione delle malattie;"Allen Frances, ";978-88-339-2436-6
105;La Terra inabitabile: una storia del futuro;"David Wallace-Wells, ";978-88-04-71987-8
106;La grande cecità: il cambiamento climatico e l'impensabile;"Amitav Ghosh, Anna Nadotti, Norman Gobetti, ";978-88-545-1337-2
107;Facing Gaia: eight lectures on the new climatic regime;"Bruno Latour, Catherine Porter, ";978-0-7456-8433-8 978-0-7456-8434-5
108;A moving border: Alpine cartographies of climate change;"Marco Ferrari, Elisa Pasqual, Andrea Bagnato, ";978-1-941332-45-0
109;Terra. Storia di un'idea;"Marco Ciardi, ";978-88-581-2833-6
110;Einstein: an illustrated biography;"Corinne Maier, Anne Simon, ";978-1-910620-01-4
111;Donne e scienza nella Roma dell'800;"Federica Favino, ";978-88-331-3235-8
112;Connessione. Storia femminile di internet;"Claire L. Evans, ";978-88-6105-428-8
113;Against method;"Paul Feyerabend, ";978-1-84467-442-8
114;Limits of the self: immunology and biological identity;"Thomas Pradeu, ";978-0-19-086957-1
115;Sulle teorie di Mach;"Robert Musil, ";978-88-459-0157-7
116;Spillover: l'evoluzione delle pandemie;"David Quammen, Luigi Civalleri, ";978-88-459-2929-8
117;La mente a più dimensioni;"Jerome Seymour Bruner, ";978-88-420-7761-9
118;Che cos'è la scienza: la rivoluzione di Anassimandro;"Carlo Rovelli, ";978-88-04-67209-8
119;Storia popolare della scienza: [minatori, levatrici e "gente meccanica";"Clifford D Conner, ";978-88-558-0004-4
120;Leviathan and the air-pump: Hobbes, Boyle, and the experimental life;"Steven Shapin, ";978-0-691-17816-5
121;A thousand years of nonlinear history;"Manuel De Landa, ";978-0-942299-31-1 978-0-942299-32-8
122;The great leveler: violence and the history of inequality from the Stone Age to the twenty-first century;"Walter Scheidel, ";978-0-691-16502-8
123;How we learn: why brains learn better than any machine ... for now;"Stanislas Dehaene, ";978-0-525-55989-4
124;The politics of maps: cartographic constructions of Israel/Palestine;"Christine Leuenberger, Itzhak Shnell, ";978-0-19-007623-8
125;Bad science: quacks, hacks, and big pharma flacks;"Ben Goldacre, ";978-0-86547-918-0
126;Gravity's Ghost and Big Dog: scientific discovery and social analysis in the twenty-first century;"H. M. Collins, ";978-0-226-05229-8
127;The manga guide to statistics;"Shin Takahashi,  Trend-pro Co, ";978-1-59327-189-3
128;Reckoning with risk: learning to live with uncertainty;"Gerd Gigerenzer, ";978-0-14-029786-7
129;Crime statistics in the news: journalism, numbers and social deviation;"Jairo Lugo-Ocando, ";978-1-137-39840-6
130;How to lie with statistics;"Darrell Huff, ";978-0-393-31072-6
131;Spurious correlations;"Tyler Vigen, ";978-0-316-33943-8
132;I confini di Babele: il cervello e il mistero delle lingue impossibili;"Andrea Moro, ";978-88-15-27932-3
133;Stiamo scomparendo: viaggio nell'Italia in minoranza;"Emanuela Colombo, ";978-88-943443-6-3
134;Il mistero del linguaggio: nuove prospettive;"Noam Chomsky, ";978-88-328-5032-1
135;L' acquisizione del linguaggio: un'introduzione;"Maria Teresa Guasti, ";978-88-6030-095-9
136;Brevi lezioni sul linguaggio;"Federico Faloppa, ";978-88-339-2965-1
137;The dialectical biologist;"Richard Levins, Richard Charles Lewontin, ";978-0-674-20283-2
138;La scienza che fu: idee e strumenti di teorie abbandonate;"Francesco Barreca, ";978-88-7075-952-5
139;Cuba: medicina, scienza e rivoluzione, 1959-2014: perché il servizio sanitario e la scienza sono all'avanguardia;"Angelo Baracca, Rosella Franconi, ";978-88-98582-78-5
140;L'invenzione della natura: le avventure di Alexander von Humboldt, l'eroe perduto della scienza;"Andrea Wulf, Lapo Berti, ";978-88-6105-262-8
141;What is life? the physical aspect of the living cell;"Erwin Schrödinger, ";978-0-521-09397-2 978-0-521-06223-7
142;Geoanarchia: appunti di resistenza ecologica;"Matteo Meschiari, ";978-88-99554-18-7
143;The scientific method: an evolution of thinking from Darwin to Dewey;"Henry M. Cowles, ";978-0-674-97619-1
144;Il dottor Semmelweis;"Louis-Ferdinand Céline, Jean Papin, ";978-88-6596-548-1
145;I fisici;"Friedrich Dürrenmatt, Aloisio Rendi, ";978-88-06-32912-9
146;Environmental problems of the Greeks and Romans: ecology in the ancient mediterranean;"J. Donald Hughes, ";978-1-4214-1210-8 978-1-4214-1211-5
147;Annuario scienza tecnologia e società: edizione 2018 : con un approfondimento sui temi della salute e dell'informazione;"Giuseppe Pellegrini, ";978-88-15-27447-2
148;La parola ai rifiuti: scrittori e letture sull'aldilà delle merci;"Guido Viale, ";9788885747302
149;Mosquito trails: ecology, health, and the politics of entanglement;"Alexander M. Nading, ";9780520282612 9780520282629
150;Italian Science Fiction: the Other in Literature and Film;"Simone Brioni, Daniele Comberiati, ";978-3-030-19326-3
151;How to survive a plague: the inside story of how citizens and science tamed AIDS;"David France, ";9780307700636
152;The drugs don't work: a global threat;"S. C Davies, Jonathan Grant, Mike Catchpole, ";9780241969199
153;Che cos'è reale? la scomparsa di Majorana;"Giorgio Agamben, ";9788854514072
154;War in the age of intelligent machines;"Manuel De Landa, ";9780942299755
155;War against the people: Israel, the Palestinians and global pacification;"Jeff Halper, ";9780745334318 9780745334301
156;Evolution - the extended synthesis;"Massimo Pigliucci, ";978-0-262-51367-8
157;Viaggio di un professore tedesco all'Eldorado;"Ludwig Boltzmann, P. G. Milanesi, ";978-88-7164-018-1
158;Borne;"Jeff VanderMeer, V. Latronico, ";978-88-06-23680-9
159;Ma gli androidi sognano pecore elettriche?;"Philip K. Dick, C. Pagetti, R. Duranti, ";978-88-347-3888-7
160;So Long Been Dreaming: Postcolonial Science Fiction & Fantasy;"Nalo Hopkinson, Uppinder Mehan, Samuel R. Delany, ";978-1-55152-158-9
161;Galápagos;"Kurt Vonnegut, ";978-0-385-29416-4
162;La stella rossa. Romanzo-utopia;"Aleksandr Bogdanov, G. Maniscalco Basile, ";978-88-389-0537-7
163;Radiant terminus;"Antoine Volodine, Jeffrey Zuckerman, Brian Evenson, ";978-1-940953-52-6
164;Verso la foce;"Gianni Celati, ";978-88-07-81200-2
165;What if? serious scientific answers to absurd hypothetical questions;"Randall Munroe, ";978-1-84854-957-9
166;The visual display of quantitative information;"Edward R. Tufte, ";978-0-9613921-4-7
167;Capitalism, alone: the future of the system that rules the world;"Branko Milanović, ";978-0-674-98759-3
168;I cacciatori di stelle;"Alexis Wright, ";978-88-17-02382-5
169;The tyranny of metrics;"Jerry Z. Muller, ";978-0-691-17495-2
170;The ends of the world;"Déborah Danowski, Eduardo Batalha Viveiros de Castro, ";978-1-5095-0397-1 978-1-5095-0398-8
171;The black box society: the secret algorithms that control money and information;"Frank Pasquale, ";978-0-674-36827-9
172;Teoria del drone: principi filosofici del diritto di uccidere;"Grégoire Chamayou, ";978-88-6548-094-6
173;Statistics done wrong: the woefully complete guide;"Alex Reinhart, ";978-1-59327-620-1
174;Sei pezzi meno facili: relatività einsteiniana, simmetria, spazio-tempo;"Richard Phillips Feynman, ";978-88-459-1870-4
175;Science in society: an introduction to social studies of science;"Massimiano Bucchi, ";978-0-415-32199-0 978-0-415-32200-3
176;Q is for quantum;"Terry Rudolph, ";978-0-9990635-0-7
177;Neanche sbagliata: il fallimento della teoria delle stringhe e la corsa all'unificazione delle leggi della fisica;"Peter Woit, ";978-88-7578-072-2
178;Lost in math: how beauty leads physics astray;"Sabine Hossenfelder, ";978-0-465-09425-7
179;Laboratory life: the construction of scientific facts;"Bruno Latour, Steve Woolgar, ";978-0-691-02832-3 978-0-691-09418-2
180;Information theory: a tutorial introduction;"James V. Stone, ";978-0-9563728-5-7
181;Il regno invisibile: nel misterioso mondo dei microbi;"Idan Ben-Barak, ";978-88-220-6818-7
182;Artifictional intelligence: against humanity's surrender to computers;"H. M. Collins, ";978-1-5095-0411-4 978-1-5095-0412-1
183;Armi di distruzione matematica: come i Big Data aumentano la disuguaglianza e minacciano la democrazia;"Cathy O'Neil, Daria Cavallini, ";978-88-452-9421-1
184;La cattiva scienza;"Ben Goldacre, Roberta Zuppet, ";978-88-6159-796-9
185;Il paese delle maree;"Amitav Ghosh, ";978-88-545-0030-3
186;The new foundations of evolution: on the tree of life;"Jan Sapp, ";978-0-19-538849-7 978-0-19-538850-3
187;Mutual aid: a factor in evolution;"Petr Alekseevich Kropotkin, ";978-1-5025-8966-8
188;Deadly companions: how microbes shaped our history;"Dorothy H Crawford, ";978-0-19-255297-6 978-0-19-255298-3
189;Sette brevi lezioni di fisica;"Carlo Rovelli, ";978-88-459-2925-0
190;Anomaly! collider physics and the quest for new phenomena at Fermilab;"Tommaso Dorigo, ";978-1-78634-110-5 978-1-78634-111-2
191;Six easy pieces: the fundamentals of physics explained;"Richard P. Feynman, ";978-0-14-027666-4
192;Microbes and other shamanic beings;"Cesar E. Giraldo Herrera, ";978-3-319-71317-5
193;Superbugs: an arms race against bacteria;"William Hall, Anthony McDonnell, Jim O'Neill, ";978-0-674-97598-9
194;The pasteurization of France;"Bruno Latour, ";978-0-674-65761-8 978-0-674-65760-1
195;The Bacteria Book: The Big World of Really Tiny Microbes.;"Steve Mould, ";978-1-4654-7028-7
196;Missing microbes: how killing bacteria creates modern plagues;"Martin J Blaser, ";978-1-78074-688-3
197;Alien ocean: anthropological voyages in microbial seas;"Stefan Helmreich, ";978-0-520-25061-1 978-0-520-25062-8
198;Il sussurro del mondo;"Richard Powers, Licia Vighi, ";978-88-9344-902-1
